{
  "project_info": {
    "project_number": "941074594008",
    "firebase_url": "https://chatapp-e2420.firebaseio.com",
    "project_id": "chatapp-e2420",
    "storage_bucket": "chatapp-e2420.appspot.com"
  },
  "client": [
    {
      "client_info": {
        "mobilesdk_app_id": "1:941074594008:android:175bf2367c3943bd19bfad",
        "android_client_info": {
          "package_name": "com.example.e_commerce"
        }
      },
      "oauth_client": [
        {
          "client_id": "941074594008-0m73kgpg75npc4o0c4k48ijt7dse0t8t.apps.googleusercontent.com",
          "client_type": 3
        }
      ],
      "api_key": [
        {
          "current_key": "AIzaSyDnRbKHOLkpoxH7uO9G-IBFkDm4KMKb9H4"
        }
      ],
      "services": {
        "appinvite_service": {
          "other_platform_oauth_client": [
            {
              "client_id": "941074594008-0m73kgpg75npc4o0c4k48ijt7dse0t8t.apps.googleusercontent.com",
              "client_type": 3
            }
          ]
        }
      }
    }
  ],
  "configuration_version": "1"
}